daltonproject not installed
geometric kwargs :  {'logIni': '/cluster/home/tilmann/.local/lib/python3.6/site-packages/hygo/log.ini', 'convergence_energy': 1e-06, 'convergence_grms': 0.0005, 'convergence_gmax': 0.0003, 'convergence_drms': 0.002, 'convergence_dmax': 0.002, 'coordsys': 'tric', 'convergence_set': 'GAU_TIGHT'}
 it	      energy        	      ||gradient||
--------------------------------------------------------------------------------
  0	   -3.07787758684339	    0.32371910070870
  1	   -3.19258341551211	    0.16815274595644
  2	   -3.25237198883898	    0.06924606323389
  3	   -3.28364875197244	    0.00779773350193
  4	   -3.28486545697549	    0.00283554564644
  5	   -3.28519775802007	    0.00249109336884
  6	   -3.28585023509507	    0.00238601677377
  7	   -3.28596981838254	    0.00165939057976
  8	   -3.28611672032790	    0.00104176472104
  9	   -3.28622184028746	    0.00060225186804
 10	   -3.28623013292583	    0.00043397049010
 11	   -3.28624265714376	    0.00024924685926
 12	   -3.28624500599022	    0.00019159779813
 13	   -3.28624619397520	    0.00008376136454
 14	   -3.28624639400134	    0.00002556291721

 Geometry optimization converged in 14 steps.

geometric kwargs :  {'logIni': '/cluster/home/tilmann/.local/lib/python3.6/site-packages/hygo/log.ini', 'convergence_energy': 1e-06, 'convergence_grms': 0.0005, 'convergence_gmax': 0.0003, 'convergence_drms': 0.002, 'convergence_dmax': 0.002, 'coordsys': 'tric', 'convergence_set': 'GAU_VERYTIGHT'}
 it	      energy        	      ||gradient||
--------------------------------------------------------------------------------
  0	   -3.33672889973487	    0.00819839848211
  1	   -3.33866642536798	    0.00371360738732
  2	   -3.33884402463304	    0.00392509400793
  3	   -3.33905773679749	    0.00119245282623
  4	   -3.33912289192247	    0.00095639834963
  5	   -3.33925156316357	    0.00026211355537
  6	   -3.33925597700373	    0.00009036106499
  7	   -3.33925631881694	    0.00000538306649

 Geometry optimization converged in 7 steps.

 H   -1.42588295883552   -1.71225663072015    0.00000000000000
 H    1.12572721821160   -0.91236577985483    0.00000000000000
 H   -1.09785495280817    0.94155465425321   -0.00000000000000
 H    1.45366930795095    1.74151487460934   -0.00000000000000

FINAL ENERGY =  -3.339256318816944
FINAL GEOMETRY (angstrom)=  [[-0.75454477 -0.90608719  0.        ]
 [ 0.59570919 -0.48280318  0.        ]
 [-0.58095982  0.49824927 -0.        ]
 [ 0.76924867  0.92156998 -0.        ]]
FINAL GEOMETRY (bohr)=  [[-1.42588296 -1.71225663  0.        ]
 [ 1.12572722 -0.91236578  0.        ]
 [-1.09785495  0.94155465 -0.        ]
 [ 1.45366931  1.74151487 -0.        ]]
